[
  {
    "id": 1,
    "name": "testtest",
    "details": "Le Lorem Ipsum est simplement du faux texte employé dans la composition et la mise en page avant impression. Le Lorem Ipsum est le faux texte standard de l'imprimerie depuis les années 1500, quand un imprimeur anonyme assembla ensemble des morceaux de texte pour réaliser un livre spécimen de polices de texte.",
    "color": "#3349FF",
    "dateStart": "01/04/2019",
    "dateEnd": "02/04/2019",
    "idVehicule": 1
  },
  {
    "id": 2,
    "name": "testtest",
    "details": "Le Lorem Ipsum est simplement du faux texte employé dans la composition et la mise en page avant impression. Le Lorem Ipsum est le faux texte standard de l'imprimerie depuis les années 1500, quand un imprimeur anonyme assembla ensemble des morceaux de texte pour réaliser un livre spécimen de polices de texte.",
    "color": "#FF4933",
    "dateStart": "03/04/2019",
    "dateEnd": "03/04/2019",
    "idVehicule": 1
  },
  {
    "id": 3,
    "name": "testtest",
    "details": "Le Lorem Ipsum est simplement du faux texte employé dans la composition et la mise en page avant impression. Le Lorem Ipsum est le faux texte standard de l'imprimerie depuis les années 1500, quand un imprimeur anonyme assembla ensemble des morceaux de texte pour réaliser un livre spécimen de polices de texte.",
    "color": "#68FF33",
    "dateStart": "03/04/2019",
    "dateEnd": "03/04/2019",
    "idVehicule": 4
  },
  {
    "id": 4,
    "name": "testtest",
    "details": "Le Lorem Ipsum est simplement du faux texte employé dans la composition et la mise en page avant impression. Le Lorem Ipsum est le faux texte standard de l'imprimerie depuis les années 1500, quand un imprimeur anonyme assembla ensemble des morceaux de texte pour réaliser un livre spécimen de polices de texte.",
    "color": "#68FF33",
    "dateStart": "01/04/2019",
    "dateEnd": "01/04/2019",
    "idVehicule": 1
  }
]